Chapter 3 Data transformation | Social Vulnerability in COVID-19
…
## # A tibble: 6 x 15
##   Age   Gender Race   Housing years_homeless phq4_dum phq4_sum fear_sum2 sd_sum3
##   <chr> <chr>  <chr>  <chr>   <chr>          <chr>    <chr>    <chr>     <chr>  
## 1 37    Female White  Unshel~ 6              None/mi~ 4        0         0      
## 2 62    Female Hispa~ Other   0              None/mi~ 5        1         1      
## 3 74    Female White  Double~ 11             Moderat~ 7        0         1      
## 4 53    Male   White  Unshel~ 12             Moderat~ 8        0         0      
## 5 48    Male   Hispa~ Other   2              None/mi~ 3        1         3      
## 6 54    Male   White  Shelte~ 16             Moderat~ 6        4         4      
## # ... with 6 more variables: at02_official_any <chr>,
## #   at02__newspapersradioortv <chr>, at02_ff_any <chr>, vacc_hes <chr>,
## #   vacc_offered <chr>, vacc_if <chr>

## # A tibble: 30 x 8
##    reason_risk reason_protecti~ reason_informat~ reason_sideeffe~ reason_moreppl
##    <chr>       <chr>            <chr>            <chr>            <chr>         
##  1 0           0                0                1                0             
##  2 0           0                1                0                0             
##  3 0           0                0                0                0             
##  4 0           1                0                0                0             
##  5 0           0                0                0                0             
##  6 0           0                0                0                0             
##  7 0           0                0                0                0             
##  8 0           0                0                1                0             
##  9 0           0                0                1                0             
## 10 0           0                0                0                0             
## # ... with 20 more rows, and 3 more variables: reason_novax <chr>,
## #   reason_riskgroup <chr>, reason_afford <chr>
…
